,2,3,5,10,20,30,50,100,200,300,500,1000,2000
1,0.624200255837117,0.7821385107337456,1.1470277897427958,0.9056043498455396,0.6397832397615268,0.8180700644605412,0.7238850924956217,0.7219956628575388,0.7497891629322864,0.9277311918447774,0.7110908762311,0.8373516492760331,0.7468002664602611
2,0.5836453274647189,0.2413365033685607,0.2850412911508937,0.31669047941801765,0.3842642522151335,0.3441160949462358,0.31982935860358297,0.351209437113606,0.3868118623755379,0.3827838606073358,0.3819551217595473,0.4044281615851941,0.4712925909377574
3,,0.23978244118154665,0.25048194731176715,1.3460817420355489,0.3294349362466248,0.3453478723416917,0.3717931821075685,0.4439564823212064,0.518939919327602,0.4890525612818141,0.4994642055179567,0.6831680349480084,0.7340467068495197
4,,,0.2443945269547843,0.4880876210731673,0.9680823979387536,0.85841593615128,1.0005816144706852,1.3515593384821736,1.2187089541009617,2.4477167564243456,1.9929558094576616,2.2263206329969107,2.592841439580476
5,,,0.2457622372768033,0.576223879611949,1.0365592973519997,1.1934685029225771,1.7888892699547447,2.690668632805168,3.2546008915924536,3.526314296701687,3.6637757207051407,4.3638802871142115,4.114833721640523
6,,,,0.4476791055331166,1.8253314200216848,0.8525183000896936,1.3072151326554415,1.8932972597272084,2.5524873015775422,2.969641732805207,3.5535526939255724,3.770612228674688,3.797775557654038
7,,,,0.2550944081727117,0.9050434448401388,1.3309601106285691,0.8756599538689178,1.0415178990062397,1.6098101731672927,2.062888636057774,2.0025075158290218,2.469467260950526,3.0505117655460183
8,,,,0.24621623488515185,0.5530326151405786,1.2711491505234889,0.5527668624226,1.2722389563385224,0.9139617311323336,1.2468897656765847,1.0292092160556958,1.305780154591681,1.7865378551598847
9,,,,0.2452958190476965,0.5303792978813469,1.0773913501443426,0.5965706349008165,0.7029841395125584,0.5903520334651051,1.0188027220027185,0.9137442191777608,0.9910518376413544,1.0074645436415297
10,,,,0.2504073190434288,0.5213201362689881,0.6124608158014274,0.8410093051901143,0.4082974776340911,0.6311140630466657,0.2845013340505926,0.40512581323958596,0.7016539033447784,0.6025238679351521
20,,,,,0.24683661056972114,0.3229565874168378,0.1990994988692602,0.2052131649039834,0.10781220732442648,0.1153077459245068,0.10691682572130644,0.1032871980336238,0.10978769764917676
30,,,,,,0.2425082307948782,0.2483653358436963,0.17647735530532746,0.06717310212938189,0.08527679287648406,0.0747497644789343,0.07091318606476557,0.07640193918949864
40,,,,,,,0.24153767832901604,0.18051671044720954,0.05581208641984736,0.04162205518117691,0.045536299597665836,0.04607002661781718,0.04815541107935775
50,,,,,,,0.2347218408575129,0.19708884933684195,0.033682147674932245,0.028001977897602625,0.023083184859361432,0.029089504772081987,0.02691837717234733
60,,,,,,,,0.2263431452782379,0.026654357167616445,0.017542697329781275,0.014465251795646552,0.01607840132600132,0.01625409567286733
70,,,,,,,,0.23105169159159736,0.05869437660532983,0.009057515695633308,0.00868377792995857,0.00842407972682085,0.009088987617070854
80,,,,,,,,0.21666732801862693,0.11104575510285536,0.006777183931770997,0.004629449480900764,0.004821090546508968,0.004719719363970655
90,,,,,,,,0.206453751015984,0.14792892873231595,0.004497349349295355,0.0028544933487237483,0.002484962217561272,0.0025183933156796537
100,,,,,,,,0.2243051051363793,0.18723237436175924,0.01927345167567949,0.0017513337898892331,0.0015107358367757876,0.0012913301723117474
200,,,,,,,,,0.2008890413167434,0.1808077922583552,0.06890115422032017,0.00015635368643455048,0.0002337712899857062
300,,,,,,,,,,0.19131221345221885,0.1506845982410166,0.0005019986508304419,0.00022629758194676747
500,,,,,,,,,,,0.18230184137254604,0.09835250692176647,0.0002577796436809794
1000,,,,,,,,,,,,0.16953798609525236,0.10464780060534373
