,2,3,5,10,20,30,50,100,200,300,500,1000,2000
1,0.6225948396642098,0.7268045190413919,0.7967734092184645,0.7632847819359269,0.7062739823701734,0.7494682832904996,0.7703841957839799,0.6984569008942572,0.7015231556010311,0.8944106538161588,0.870800934683467,0.855426740827341,0.7658887798451945
2,0.5919894439646922,0.31792976558304076,0.7122588757667708,0.36768617523770575,0.3302799442440415,0.31322120828295086,0.3221574466870713,0.34531341477575395,0.36332572679154007,0.3649949680462372,0.39048036976092304,0.4095651953517783,0.4457089324967177
3,,0.338227619097012,0.8096381109718587,0.7984273877656858,0.5340011358427779,0.4341918233006762,0.44773867727928895,0.40105704658778063,0.4296088767494896,0.5156732690711101,0.5520245318262946,0.8145535804228528,0.7081279764359871
4,,,0.5946149724405194,6.603483214028162,1.1839045376185198,1.3450660119305797,0.8864287218007056,1.2107893020721523,1.672723453897745,1.8490939289534645,2.391748519630294,2.2881354758339705,2.0294597695290557
5,,,0.503299770641569,4.052712312739395,1.5997233288236252,1.277874423347593,1.9247923173859938,1.5939249081197526,2.5384862223465605,3.2017954497893335,3.667310540733559,3.8613976122720453,3.8732324566366536
6,,,,2.3727707330243106,2.256163840463207,1.9232877320038626,1.3833210939204943,1.1625997246341844,1.9940397794536964,2.9248361172993973,3.0723301507865965,3.064737824755651,3.249750032022626
7,,,,2.2579615952905794,2.5373137571871256,1.9387916366252558,1.1683767845527608,1.5422558258126027,1.7684730884731181,1.7980687217060556,2.152307955135944,2.597556864827061,2.9186073606501317
8,,,,1.1729500007178335,3.6375206779695537,1.5974017211188911,1.0296279298665185,0.9675310711767695,0.940939415202075,1.5803844671159049,1.3730420686040983,1.3835345313510934,1.6857951197280105
9,,,,0.9975284604892183,6.7240961192155115,1.465723500368799,1.077606930964127,0.855309801450321,0.5828950780340624,0.860794085804103,0.949565209722482,1.204714684649723,1.06763988922865
10,,,,0.7303516349320096,3.76091355151029,1.6655405849413385,0.7150516381881377,0.572795983489088,0.6495404191513848,0.7830941001370328,0.5807527365669308,0.7784396603410254,0.7199200844240028
20,,,,,1.387175566003945,1.0792025698887613,0.9482095997914106,0.33644263882281916,0.2947891198333268,0.16814301945977003,0.20276472724124933,0.16662955003814023,0.16698095960616444
30,,,,,,1.0383654046623982,0.9520790804157422,0.2815768264884908,0.16338416578060916,0.1544280159077761,0.14252084860338038,0.1275371337996691,0.1268034113148609
40,,,,,,,0.8717606289499094,0.7071739512884969,0.1712612423261191,0.14772140046883372,0.11751275245934127,0.1009290707253943,0.10173456665519878
50,,,,,,,0.7856841120180794,0.8821675243818385,0.18947506221259786,0.15889499340776406,0.12518380038530214,0.09477576871240079,0.08882767850501376
60,,,,,,,,0.534038011322677,0.2358033978632929,0.14986996416203652,0.11213879460912284,0.09223608593495372,0.07923974212498353
70,,,,,,,,0.5351437757007622,0.3392993770522636,0.1770548046659926,0.1131194195443355,0.08694959610671762,0.07299043449234932
80,,,,,,,,0.4797517804958562,0.37193251165815283,0.17574731222314952,0.1181300975803982,0.09597192071366693,0.07348787674713698
90,,,,,,,,0.6198053860983544,0.4848553640938422,0.17180038951983578,0.11632024851918037,0.09085960823140313,0.07150028234622037
100,,,,,,,,0.7561925209815907,0.3809787272144335,0.2108796308121605,0.1234862127616176,0.09081307945877216,0.07603944112722757
200,,,,,,,,,0.4717609457294728,0.3994206270428939,0.17429184673309675,0.09471725628281243,0.07688537133650683
300,,,,,,,,,,0.5009680071844957,0.2714979119310206,0.11116665879479079,0.08040986657216889
500,,,,,,,,,,,0.4653081030335707,0.20417597549713115,0.08345866077104304
1000,,,,,,,,,,,,0.39840058544992524,0.1771871825502077
