Name,Screen_name,Tweets,Time
Kenneth Lee,kenneth_lee_ch,@HilaryClinton Hi,Sun Jan 22 00:30:04 +0000 2017
Kenneth Lee,kenneth_lee_ch,I am not too happy about pymongo.,Sun Jan 22 00:40:48 +0000 2017
Carolina Cruz Osorio,carocruzosorio,"Atardeceres contigo  @ Miami, Florida https://t.co/1uwFcfsrpX",Sun Jan 22 00:43:37 +0000 2017
Emma Watson,EmmaWatson,RT @Almaharel: These women never met till today and practiced this song online. Show them some love. #Icantkeepquiet #WomensMarch ,Sun Jan 22 01:19:28 +0000 2017
Jennifer Lopez,JLo,The sun came out eventually...always does... ,Sun Jan 22 01:44:29 +0000 2017
Jennifer Lopez,JLo,Respect and love to all those who marched today! #womansmarch #todaywestoodup #proudtobeawoman ,Sun Jan 22 01:46:39 +0000 2017
Jennifer Lopez,JLo,Oooohhh yeaaaahhhh... #coconutsandwich #mybabies #LOVE ,Sun Jan 22 01:47:06 +0000 2017
Joe Rogan,joerogan,"Time, you're a cruel bitch. ",Sun Jan 22 01:49:46 +0000 2017
Cameron Dallas,camerondallas,Thanks beautiful  following you ! ,Sun Jan 22 02:02:15 +0000 2017
Paula,paulitachaves,Bulldog franes encontrado en pilar ,Sun Jan 22 02:14:17 +0000 2017
Paula,paulitachaves,@Verozuk feliz cumple vero,Sun Jan 22 02:39:38 +0000 2017
